Repeated Measures ANOVA
…
The dataset contains 10 individuals’ self-esteem score on three time points during a specific diet to determine whether their self-esteem improved.

Wide to long format

Currently the selfesteem data set is in wide format. In order to run some of the statistical test, we need to transform it into long format

selfesteem <- selfesteem %>%
  pivot_longer(cols = c(t1:t3), names_to = "time", values_to = "score")

# checking to see if it converted correctly

selfesteem

# A tibble: 30 × 3
      id time  score
   <int> <chr> <dbl>
 1     1 t1     4.01
 2     1 t2     5.18
 3     1 t3     7.11
 4     2 t1     2.56
 5     2 t2     6.91
 6     2 t3     6.31
 7     3 t1     3.24
 8     3 t2     4.44
 9     3 t3     9.78
10     4 t1     3.42
# ℹ 20 more rows
…
